PRODUCT_CATEGORY,PRODUCT_AGE_GROUP,PRODUCT_NAME,PRODUCT_COST,PRODUCT_SELLING_PRICE,ITEMS_IN_STOCK,ITEMS_ORDER_FROM_VENDOR,SHELF,BIN
COMPUTER,TEENAGERS,HP SPECTER 2 GHZ,1500,2000,,,,
CELL PHONE,TEENAGERS,APPLE IPHONE 7,600,800,,,,
LAPTOP,TEENAGERS,"LENOVO Y700 14""",700,900,,,,
KITCHEN,ADULTS,LG REFRIGERATOR,1500,1800,,,,
FOOD,TEENAGERS,Cerial,2.5,5,,,,
FOOD,TEENAGERS,Bread,1.5,3,,,,
LAPTOP,TEENAGERS,Microsoft Surface Pro,1200,1500,,,,
TABLET,TEENAGERS,Samsung Tab S2,400,700,,,,
MONITOR,ADULTS,"40 "" Philips 4K",400,700,,,,
WASHERS,ADULTS,Samsung Washer 400,400,650,,,,
LAPTOP,TEENAGERS,Apple Mac Book Pro,1200,1600,,,,
COMPUTER,TEENAGERS,Microsoft Surface Studio,2000,2500,,,,
CELL PHONE,TEENAGERS,Lenovo Phab 2 Pro,400,700,,,,
KITCHEN,ADULTS,Samsung Dish Washer,500,700,,,,
TABLET,TEENAGERS,Apple Ipad Pro,600,900,,,,
TELESCOPE,ADULTS,Celestron NextStar SE,1200,1500,,,,
SOFTWARE,TEENAGERS,Microsoft Office,80,120,,,,
PRINTER,TEENAGERS,HP Inkjet Printer,50,60,,,,
BOOK,INFANTS,ABCD Songs,10,25,,,,
BABY,INFANTS,BABY STROLLER,200,359,,,,
BABY,INFANTS,BABY MONITORING,180,250,,,,
BABY,INFANTS,KIDS TABLET,150,170,,,,
GAMING LAPTOP,TEENAGERS,"LENOVO 17"" Gaming Laptop",2500,3000,,,,
ACCESSORIES,TEENAGERS,BLUETOOTH MOUSE,30,45,,,,
