INVOICE ID,PROD NAME,PRICE,DISCOUNT,PROD COUNT,LINE_TOTAL
1,HP SPECTER 2 GHZ,2000,0,1,2000
1,APPLE IPHONE 7,800,0,2,1600
1,Samsung Washer 400,650,0,1,650
1,Samsung Dish Washer,700,25,1,675
1,Microsoft Office,120,0,1,120
1,Samsung Tab S2,700,0,1,700
2,HP SPECTER 2 GHZ,2000,0,1,2000
2,ABCD Songs,25,10,1,15
2,Celestron NextStar SE,1500,0,1,1500
2,Apple Ipad Pro,900,0,1,900
3,Cerial,5,0,5,25
3,Bread,3,0,4,12
3,"LENOVO Y700 14""",900,0,1,900
3,LG REFRIGERATOR,1800,0,1,1800
3,"40 "" Philips 4K",700,0,1,700
4,Apple Mac Book Pro,1600,120,1,1480
4,HP Inkjet Printer,60,0,3,180
4,Samsung Dish Washer,700,0,1,700
4,Celestron NextStar SE,1500,35,1,1465
4,Apple Ipad Pro,900,0,1,900
5,Samsung Washer 400,700,0,1,700
5,Samsung Tab S2,700,0,1,700
5,"LENOVO Y700 14""",900,0,1,900
5,ABCD Songs,25,0,1,25
6,HP Inkjet Printer,60,0,1,60
6,Celestron NextStar SE,1500,45,1,1455
6,Apple Ipad Pro,900,0,2,1800
6,Microsoft Surface Studio,2500,40,1,2460
6,Lenovo Phab 2 Pro,700,0,1,700
7,Bread,3,0,2,6
7,"LENOVO Y700 14""",900,0,1,900
7,APPLE IPHONE 7,800,0,1,800
7,HP SPECTER 2 GHZ,2000,70,1,1930
8,"40 "" Philips 4K",700,0,1,700
8,Apple Ipad Pro,900,0,1,900
8,Celestron NextStar SE,1500,0,1,1500
8,HP Inkjet Printer,60,0,1,60
9,Samsung Dish Washer,700,0,1,700
9,Apple Ipad Pro,900,0,1,900
9,"LENOVO Y700 14""",900,0,1,900
10,APPLE IPHONE 7,800,0,1,800
10,Celestron NextStar SE,1500,0,1,1500
10,Samsung Tab S2,700,0,1,700
10,Cerial,5,0,1,5
3,HP SPECTER 2 GHZ,2000,0,1,2000
4,APPLE IPHONE 7,800,0,2,1600
5,Samsung Washer 400,650,0,1,650
6,Samsung Dish Washer,700,25,1,675
7,Microsoft Office,120,0,1,120
8,Samsung Tab S2,700,0,1,700
6,HP SPECTER 2 GHZ,2000,0,1,2000
7,ABCD Songs,25,10,1,15
5,Celestron NextStar SE,1500,0,1,1500
4,Apple Ipad Pro,900,0,1,900
3,Cerial,5,0,5,25
2,Bread,3,0,4,12
1,"LENOVO Y700 14""",900,0,1,900
4,LG REFRIGERATOR,1800,0,1,1800
6,"40 "" Philips 4K",700,0,1,700
7,Apple Mac Book Pro,1600,120,1,1480
8,HP Inkjet Printer,60,0,3,180
6,Samsung Dish Washer,700,0,1,700
7,Celestron NextStar SE,1500,35,1,1465
8,Apple Ipad Pro,900,0,1,900
9,Samsung Washer 400,700,0,1,700
4,Samsung Tab S2,700,0,1,700
2,"LENOVO Y700 14""",900,0,1,900
4,ABCD Songs,25,0,1,25
7,HP Inkjet Printer,60,0,1,60
2,Celestron NextStar SE,1500,45,1,1455
2,Apple Ipad Pro,900,0,2,1800
3,Microsoft Surface Studio,2500,40,1,2460
5,Lenovo Phab 2 Pro,700,0,1,700
8,Bread,3,0,2,6
9,"LENOVO Y700 14""",900,0,1,900
5,APPLE IPHONE 7,800,0,1,800
10,HP SPECTER 2 GHZ,2000,70,1,1930
2,"40 "" Philips 4K",700,0,1,700
3,Apple Ipad Pro,900,0,1,900
4,Celestron NextStar SE,1500,0,1,1500
5,HP Inkjet Printer,60,0,1,60
6,Samsung Dish Washer,700,0,1,700
7,Apple Ipad Pro,900,0,1,900
8,"LENOVO Y700 14""",900,0,1,900
5,APPLE IPHONE 7,800,0,1,800
4,Celestron NextStar SE,1500,0,1,1500
3,Samsung Tab S2,700,0,1,700
2,Cerial,5,0,1,5
