FIRST_NAME,LAST_NAME,GENDER,DOB,ADDRESS,PHONE_NUMBER,EMAIL_ADDRESS,CITY,PROVINCE
AALIYAH,AARON,F,3/4/2005,,,aaliyah.aaron@test.gmail.com,TORONTO,ONTARIO
RINA,RIVER,F,4/3/2000,,,rina.river@test.gmail.com,NORTH YORK,ONTARIO
ROBERT,AADI,M,5/8/1995,,,robert.aadi@test.gmail.com,SCARBOROUGH,ONTARIO
ABDALLAH,AALIYAH,M,4/8/1990,,,abdallah.aaliyah@test.gmail.com,VAUGHAN,ONTARIO
ABDULLAH,ABDUL,F,3/8/1980,,,abdullah.abdul@test.gmail.com,TORONTO,ONTARIO
RITA,ABEL,M,3/4/1999,,,rita.abel@test.gmail.com,SCARBOROUGH,ONTARIO
